P4(Verilog单周期CPU)/CPU/test.vcd
$date
	Fri Oct 28 22:12:23 2022
$end
$version
	Icarus Verilog
$end
$timescale
	1ps
$end
$scope module tb_DataPath $end
$var reg 1 ! Clk $end
$var reg 1 " Reset $end
$scope module u_DataPath $end
$var wire 32 # A [31:0] $end
$var wire 4 $ ALUOp [3:0] $end
$var wire 32 % Addr [31:0] $end
$var wire 5 & Address1 [4:0] $end
$var wire 5 ' Address2 [4:0] $end
$var wire 1 ! Clk $end
$var wire 32 ( Offset [31:0] $end
$var wire 1 " Reset $end
$var wire 32 ) WD [31:0] $end
$var wire 1 * WE $end
$var wire 1 + WriteEn $end
$var wire 32 , b [31:0] $end
$var wire 5 - a [4:0] $end
$var wire 32 . WriteData [31:0] $end
$var wire 5 / WriteAddress [4:0] $end
$var wire 32 0 SrcB [31:0] $end
$var wire 32 1 SrcA [31:0] $end
$var wire 1 2 SllEn $end
$var wire 32 3 Sll [31:0] $end
$var wire 5 4 S [4:0] $end
$var wire 5 5 Rt [4:0] $end
$var wire 5 6 Rs [4:0] $end
$var wire 1 7 RegWrite $end
$var wire 1 8 RegDst $end
$var wire 32 9 ReadData2 [31:0] $end
$var wire 32 : ReadData1 [31:0] $end
$var wire 5 ; Rd [4:0] $end
$var wire 32 < PC4 [31:0] $end
$var wire 32 = PC [31:0] $end
$var wire 6 > OpCode [5:0] $end
$var wire 1 ? MemtoReg $end
$var wire 1 @ MemWrite $end
$var wire 1 A Jr $end
$var wire 1 B Jal $end
$var wire 1 C JEn $end
$var wire 32 D Instr [31:0] $end
$var wire 16 E Imm [15:0] $end
$var wire 6 F Func [5:0] $end
$var wire 1 G ExtOp $end
$var wire 32 H Ext [31:0] $end
$var wire 32 I D [31:0] $end
$var wire 1 J Byte $end
$var wire 1 K Branch $end
$var wire 1 L B $end
$var wire 1 M ALUSrc $end
$var wire 32 N ALUResult [31:0] $end
$var wire 4 O ALUCtr [3:0] $end
$scope module alu $end
$var wire 4 P ALUOp [3:0] $end
$var wire 32 Q SrcB [31:0] $end
$var wire 32 R SrcA [31:0] $end
$var wire 32 S ALUResult [31:0] $end
$upscope $end
$scope module ctr $end
$var wire 1 T sw $end
$var wire 1 U sub $end
$var wire 1 V slt $end
$var wire 1 W sllv $end
$var wire 1 X sll $end
$var wire 1 Y sb $end
$var wire 1 Z ori $end
$var wire 1 [ lw $end
$var wire 1 \ lui $end
$var wire 1 ] lb $end
$var wire 1 ^ jr $end
$var wire 1 _ jal $end
$var wire 1 ` j $end
$var wire 1 a beq $end
$var wire 1 b addi $end
$var wire 1 c add $end
$var wire 1 2 SllEn $end
$var wire 1 7 RegWrite $end
$var wire 1 8 RegDst $end
$var wire 6 d OpCode [5:0] $end
$var wire 1 ? MemtoReg $end
$var wire 1 @ MemWrite $end
$var wire 1 A Jr $end
$var wire 1 B Jal $end
$var wire 1 C JEn $end
$var wire 6 e Func [5:0] $end
$var wire 1 G ExtOp $end
$var wire 1 f En $end
$var wire 1 J Byte $end
$var wire 1 L Branch $end
$var wire 1 M ALUSrc $end
$var wire 4 g ALUCtr [3:0] $end
$scope module OR $end
$var wire 1 M ALUSrc $end
$var wire 1 L Branch $end
$var wire 1 J Byte $end
$var wire 1 G ExtOp $end
$var wire 1 C JEn $end
$var wire 1 B Jal $end
$var wire 1 A Jr $end
$var wire 1 @ MemWrite $end
$var wire 1 ? MemtoReg $end
$var wire 1 8 RegDst $end
$var wire 1 7 RegWrite $end
$var wire 1 2 SllEn $end
$var wire 1 T sw $end
$var wire 1 U sub $end
$var wire 1 V slt $end
$var wire 1 W sllv $end
$var wire 1 X sll $end
$var wire 1 Y sb $end
$var wire 1 Z ori $end
$var wire 1 [ lw $end
$var wire 1 \ lui $end
$var wire 1 ] lb $end
$var wire 1 ^ jr $end
$var wire 1 _ jal $end
$var wire 1 ` j $end
$var wire 1 a beq $end
$var wire 1 b addi $end
$var wire 1 c add $end
$var wire 4 h ALUCtr [3:0] $end
$upscope $end
$scope module ijdecode $end
$var wire 1 i En $end
$var wire 1 T sw $end
$var wire 1 Y sb $end
$var wire 1 Z ori $end
$var wire 1 [ lw $end
$var wire 1 \ lui $end
$var wire 1 ] lb $end
$var wire 1 _ jal $end
$var wire 1 ` j $end
$var wire 1 a beq $end
$var wire 1 b addi $end
$var wire 6 j OpCode [5:0] $end
$upscope $end
$scope module rdwcode $end
$var wire 1 f En $end
$var wire 1 U sub $end
$var wire 1 V slt $end
$var wire 1 W sllv $end
$var wire 1 X sll $end
$var wire 1 ^ jr $end
$var wire 1 c add $end
$var wire 6 k Func [5:0] $end
$upscope $end
$upscope $end
$scope module dm $end
$var wire 32 l Addr [31:0] $end
$var wire 1 J Byte $end
$var wire 1 ! Clk $end
$var wire 32 m D1 [31:0] $end
$var wire 32 n Op [31:0] $end
$var wire 1 " Reset $end
$var wire 32 o WD [31:0] $end
$var wire 1 * WE $end
$var wire 32 p wd1 [31:0] $end
$var wire 8 q d [7:0] $end
$var wire 32 r b [31:0] $end
$var wire 5 s a [4:0] $end
$var wire 32 t PC [31:0] $end
$var wire 32 u Data [31:0] $end
$var wire 32 v D2 [31:0] $end
$var wire 32 w D [31:0] $end
$var integer 32 x i [31:0] $end
$scope module ext $end
$var wire 2 y Imm [1:0] $end
$var wire 5 z Ext [4:0] $end
$upscope $end
$scope module ext2 $end
$var wire 8 { Imm [7:0] $end
$var wire 32 | Ext [31:0] $end
$upscope $end
$scope module mux1 $end
$var wire 8 } In0 [7:0] $end
$var wire 8 ~ In1 [7:0] $end
$var wire 8 !" In2 [7:0] $end
$var wire 8 "" In3 [7:0] $end
$var wire 2 #" Sel [1:0] $end
$var wire 8 $" Out [7:0] $end
$upscope $end
$upscope $end
$scope module ext1 $end
$var wire 1 G Op $end
$var wire 16 %" Imm [15:0] $end
$var wire 32 &" Ext [31:0] $end
$upscope $end
$scope module ext2 $end
$var wire 5 '" Imm [4:0] $end
$var wire 32 (" Ext [31:0] $end
$upscope $end
$scope module grf $end
$var wire 5 )" Address1 [4:0] $end
$var wire 5 *" Address2 [4:0] $end
$var wire 1 ! Clk $end
$var wire 32 +" ReadData1 [31:0] $end
$var wire 32 ," ReadData2 [31:0] $end
$var wire 1 " Reset $end
$var wire 1 + WriteEn $end
$var wire 32 -" WriteData [31:0] $end
$var wire 5 ." WriteAddress [4:0] $end
$var wire 32 /" PC [31:0] $end
$var integer 32 0" i [31:0] $end
$upscope $end
$scope module ifu $end
$var wire 32 1" A [31:0] $end
$var wire 1 ! Clk $end
$var wire 1 C J $end
$var wire 1 A Jr $end
$var wire 32 2" Offset [31:0] $end
$var wire 32 3" PC [31:0] $end
$var wire 1 " Reset $end
$var wire 32 4" PC4 [31:0] $end
$var wire 32 5" NextPC [31:0] $end
$var wire 32 6" Instr [31:0] $end
$var wire 1 K Branch $end
$var reg 32 7" pc [31:0] $end
$scope module im $end
$var wire 32 8" Instr [31:0] $end
$var wire 32 9" PC [31:0] $end
$var wire 32 :" address [31:0] $end
$upscope $end
$scope module npc $end
$var wire 32 ;" A [31:0] $end
$var wire 26 <" Index [25:0] $end
$var wire 1 C J $end
$var wire 1 A Jr $end
$var wire 32 =" Offset [31:0] $end
$var wire 32 >" PC [31:0] $end
$var wire 32 ?" NPC [31:0] $end
$var wire 1 K B $end
$upscope $end
$upscope $end
$scope module mux1 $end
$var wire 1 @" In0 $end
$var wire 1 A" In1 $end
$var wire 1 L Sel $end
$var wire 1 K Out $end
$upscope $end
$scope module mux2 $end
$var wire 1 8 Sel $end
$var wire 5 B" Out [4:0] $end
$var wire 5 C" In1 [4:0] $end
$var wire 5 D" In0 [4:0] $end
$upscope $end
$scope module mux3 $end
$var wire 5 E" In0 [4:0] $end
$var wire 5 F" In1 [4:0] $end
$var wire 1 B Sel $end
$var wire 5 G" Out [4:0] $end
$upscope $end
$scope module mux4 $end
$var wire 32 H" In0 [31:0] $end
$var wire 32 I" In1 [31:0] $end
$var wire 1 ? Sel $end
$var wire 32 J" Out [31:0] $end
$upscope $end
$scope module mux5 $end
$var wire 32 K" In0 [31:0] $end
$var wire 32 L" In1 [31:0] $end
$var wire 1 B Sel $end
$var wire 32 M" Out [31:0] $end
$upscope $end
$scope module mux6 $end
$var wire 32 N" In0 [31:0] $end
$var wire 32 O" In1 [31:0] $end
$var wire 1 2 Sel $end
$var wire 32 P" Out [31:0] $end
$upscope $end
$scope module mux7 $end
$var wire 32 Q" In0 [31:0] $end
$var wire 32 R" In1 [31:0] $end
$var wire 1 M Sel $end
$var wire 32 S" Out [31:0] $end
$upscope $end
$scope module sp $end
$var wire 32 T" Instr [31:0] $end
$var wire 5 U" S [4:0] $end
$var wire 5 V" Rt [4:0] $end
$var wire 5 W" Rs [4:0] $end
$var wire 5 X" Rd [4:0] $end
$var wire 6 Y" Opcode [5:0] $end
$var wire 16 Z" Imm [15:0] $end
$var wire 6 [" Func [5:0] $end
$upscope $end
$upscope $end
$upscope $end
$enddefinitions $end
#0
$dumpvars
bx ["
bx Z"
bx Y"
bx X"
bx W"
bx V"
bx U"
bx T"
bx S"
bx R"
bx Q"
bx P"
b0xxxxx O"
bx N"
bx M"
bx L"
bx K"
bx J"
bx I"
bx H"
bx G"
b11111 F"
bx E"
bx D"
bx C"
bx B"
xA"
0@"
bx ?"
bx >"
bx ="
bx <"
bx ;"
bx :"
bx 9"
bx 8"
bx 7"
bx 6"
bx 5"
bx 4"
bx 3"
bx 2"
bx 1"
b0 0"
bx /"
bx ."
bx -"
bx ,"
bx +"
bx *"
bx )"
b0xxxxx ("
bx '"
bx &"
bx %"
bx $"
bx #"
bx ""
bx !"
bx ~
bx }
b0xxxxxxxx |
bx {
b0xx z
bx y
b0 x
bx w
b0xxxxxxxx v
bx u
bx t
b0xx s
bx r
bx q
bx p
bx o
bx n
bx m
bx l
bx k
bx j
xi
bx h
bx g
xf
bx e
bx d
xc
xb
xa
x`
x_
x^
x]
x\
x[
xZ
xY
xX
xW
xV
xU
xT
bx S
bx R
bx Q
bx P
bx O
bx N
xM
xL
xK
xJ
bx I
bx H
xG
bx F
bx E
bx D
xC
xB
xA
x@
x?
bx >
bx =
bx <
bx ;
bx :
bx 9
x8
x7
bx 6
bx 5
bx 4
b0xxxxx 3
x2
bx 1
bx 0
bx /
bx .
bx -
bx ,
x+
x*
bx )
bx (
bx '
bx &
bx %
bx $
bx #
1"
0!
$end
#1000
b0 v
b0 |
b0 q
b0 {
b0 $"
b0 }
b0 ~
b0 !"
b0 ""
b0 I
b0 w
b0 I"
b0x ,
b0x J"
b0x K"
b0x s
b0x z
b0x y
b0 m
b0x #"
b0x %
b0x l
b0x N
b0x S
b0x H"
b11111 /
b11111 ."
b11111 G"
b11000001000100 5"
b11000001000100 ?"
b11000000000100 .
b11000000000100 -"
b11000000000100 M"
1+
17
b0 u
0K
1B
1C
0G
0M
1_
08
0J
0L
0*
0@
0?
0A
02
b0 0
b0 Q
b0 S"
0]
0Y
0`
0b
0\
0a
0T
0[
0Z
1i
0^
0V
0W
0X
0U
0c
0f
b0 1
b0 R
b0 P"
b0 -
b0 B"
b0 E"
b110000010001 (
b110000010001 H
b110000010001 &"
b110000010001 2"
b110000010001 ="
b110000010001 R"
b11 >
b11 d
b11 j
b11 Y"
b0 #
b0 1"
b0 ;"
b0 :
b0 +"
b0 N"
b0 &
b0 )"
b0 6
b0 W"
b0 )
b0 o
b0 9
b0 ,"
b0 Q"
b0 '
b0 *"
b0 5
b0 D"
b0 V"
b1 ;
b1 C"
b1 X"
b10000 3
b10000 ("
b10000 O"
b10000 4
b10000 '"
b10000 U"
b10001 F
b10001 e
b10001 k
b10001 ["
b110000010001 E
b110000010001 %"
b110000010001 Z"
b110000010001 <"
b1100000000000000110000010001 D
b1100000000000000110000010001 6"
b1100000000000000110000010001 8"
b1100000000000000110000010001 T"
b11000000000100 <
b11000000000100 4"
b11000000000100 L"
b0 :"
b11000000000000 =
b11000000000000 t
b11000000000000 /"
b11000000000000 3"
b11000000000000 7"
b11000000000000 9"
b11000000000000 >"
b100000 0"
b1000000000000 x
1!
#2000
0!
0"
#3000
b11111111000000001111111111111111 n
b0 p
b111111110000000000000000 r
0A"
b0 v
b0 |
b0 q
b0 {
b0 $"
b10 $
b10 P
b10 O
b10 g
b10 h
b0 }
b0 ~
b0 !"
b0 ""
b0 I
b0 w
b0 I"
b1010 ,
b1010 J"
b1010 K"
b10 s
b10 z
b10 y
b0 m
b10 #"
b1010 %
b1010 l
b1010 N
b1010 S
b1010 H"
b1010 0
b1010 Q
b1010 S"
b10000 /
b10000 ."
b10000 G"
1G
1M
0B
0C
0_
1b
b11000001001000 5"
b11000001001000 ?"
b10000 -
b10000 B"
b10000 E"
b1010 (
b1010 H
b1010 &"
b1010 2"
b1010 ="
b1010 R"
b1010 .
b1010 -"
b1010 M"
b1000 >
b1000 d
b1000 j
b1000 Y"
b10000 '
b10000 *"
b10000 5
b10000 D"
b10000 V"
b0 ;
b0 C"
b0 X"
b0 3
b0 ("
b0 O"
b0 4
b0 '"
b0 U"
b1010 F
b1010 e
b1010 k
b1010 ["
b1010 E
b1010 %"
b1010 Z"
b100000000000000001010 <"
b100000000100000000000000001010 D
b100000000100000000000000001010 6"
b100000000100000000000000001010 8"
b100000000100000000000000001010 T"
b11000001001000 <
b11000001001000 4"
b11000001001000 L"
b1000100 :"
b11000001000100 =
b11000001000100 t
b11000001000100 /"
b11000001000100 3"
b11000001000100 7"
b11000001000100 9"
b11000001000100 >"
1!
#4000
0!
#5000
b11111111111111110000000011111111 n
b1 .
b1 -"
b1 M"
b1111111100000000 r
b1 ,
b1 J"
b1 K"
1A"
b1 s
b1 z
b1 y
b1 #"
b1 %
b1 l
b1 N
b1 S
b1 H"
b1 0
b1 Q
b1 S"
b10001 /
b10001 ."
b10001 G"
b1 (
b1 H
b1 &"
b1 2"
b1 ="
b1 R"
b10001 -
b10001 B"
b10001 E"
b11000001001100 5"
b11000001001100 ?"
b10001 '
b10001 *"
b10001 5
b10001 D"
b10001 V"
b1 F
b1 e
b1 k
b1 ["
b1 E
b1 %"
b1 Z"
b100010000000000000001 <"
b100000000100010000000000000001 D
b100000000100010000000000000001 6"
b100000000100010000000000000001 8"
b100000000100010000000000000001 T"
b0 p
b0 u
b11000001001100 <
b11000001001100 4"
b11000001001100 L"
b1001000 :"
b11000001001000 =
b11000001001000 t
b11000001001000 /"
b11000001001000 3"
b11000001001000 7"
b11000001001000 9"
b11000001001000 >"
b0 )
b0 o
b0 9
b0 ,"
b0 Q"
1!
#6000
0!
#7000
b11111111111111111111111100000000 n
b0 .
b0 -"
b0 M"
b11111111 r
b0 ,
b0 J"
b0 K"
0A"
b0 s
b0 z
b0 y
b0 #"
b0 %
b0 l
b0 N
b0 S
b0 H"
b0 0
b0 Q
b0 S"
b1001 /
b1001 ."
b1001 G"
b0 (
b0 H
b0 &"
b0 2"
b0 ="
b0 R"
b1001 -
b1001 B"
b1001 E"
b11000001010000 5"
b11000001010000 ?"
b1001 '
b1001 *"
b1001 5
b1001 D"
b1001 V"
b0 F
b0 e
b0 k
b0 ["
b0 E
b0 %"
b0 Z"
b10010000000000000000 <"
b0 p
b0 u
b100000000010010000000000000000 D
b100000000010010000000000000000 6"
b100000000010010000000000000000 8"
b100000000010010000000000000000 T"
b0 )
b0 o
b0 9
b0 ,"
b0 Q"
b11000001010000 <
b11000001010000 4"
b11000001010000 L"
b1001100 :"
b11000001001100 =
b11000001001100 t
b11000001001100 /"
b11000001001100 3"
b11000001001100 7"
b11000001001100 9"
b11000001001100 >"
1!
#8000
0!
#9000
b11111111000000001111111111111111 n
b10 .
b10 -"
b10 M"
b111111110000000000000000 r
b10 ,
b10 J"
b10 K"
b10 s
b10 z
b10 y
b10 #"
b10 %
b10 l
b10 N
b10 S
b10 H"
b10 0
b10 Q
b10 S"
b10010 /
b10010 ."
b10010 G"
b10 (
b10 H
b10 &"
b10 2"
b10 ="
b10 R"
b10010 -
b10010 B"
b10010 E"
b11000001010100 5"
b11000001010100 ?"
b10010 '
b10010 *"
b10010 5
b10010 D"
b10010 V"
b10 F
b10 e
b10 k
b10 ["
b10 E
b10 %"
b10 Z"
b100100000000000000010 <"
b100000000100100000000000000010 D
b100000000100100000000000000010 6"
b100000000100100000000000000010 8"
b100000000100100000000000000010 T"
b11000001010100 <
b11000001010100 4"
b11000001010100 L"
b1010000 :"
b11000001010000 =
b11000001010000 t
b11000001010000 /"
b11000001010000 3"
b11000001010000 7"
b11000001010000 9"
b11000001010000 >"
1!
#10000
0!
#11000
b11111111111111110000000011111111 n
b0 v
b0 |
b0 q
b0 {
b0 $"
b1111111100000000 r
b0 }
b0 ~
b0 !"
b0 ""
b0 I
b0 w
b0 I"
1A"
b1 s
b1 z
b1 y
b0 m
b1 #"
b1001 $
b1001 P
b1001 O
b1001 g
b1001 h
b1 .
b1 -"
b1 M"
b1 ,
b1 J"
b1 K"
b1 %
b1 l
b1 N
b1 S
b1 H"
18
0G
0M
b1010 0
b1010 Q
b1010 S"
1V
0b
0i
b1100 /
b1100 ."
b1100 G"
b110000000101010 (
b110000000101010 H
b110000000101010 &"
b110000000101010 2"
b110000000101010 ="
b110000000101010 R"
1f
b1100 -
b1100 B"
b1100 E"
b11000001011000 5"
b11000001011000 ?"
b0 >
b0 d
b0 j
b0 Y"
b1000 &
b1000 )"
b1000 6
b1000 W"
b10000 '
b10000 *"
b10000 5
b10000 D"
b10000 V"
b1100 ;
b1100 C"
b1100 X"
b101010 F
b101010 e
b101010 k
b101010 ["
b110000000101010 E
b110000000101010 %"
b110000000101010 Z"
b1000100000110000000101010 <"
b101000000000 p
b1010 u
b1000100000110000000101010 D
b1000100000110000000101010 6"
b1000100000110000000101010 8"
b1000100000110000000101010 T"
b1010 )
b1010 o
b1010 9
b1010 ,"
b1010 Q"
b11000001011000 <
b11000001011000 4"
b11000001011000 L"
b1010100 :"
b11000001010100 =
b11000001010100 t
b11000001010100 /"
b11000001010100 3"
b11000001010100 7"
b11000001010100 9"
b11000001010100 >"
1!
#12000
0!
#13000
b11111111111111111111111100000000 n
b0 .
b0 -"
b0 M"
b11111111 r
b0 ,
b0 J"
b0 K"
0A"
b0 s
b0 z
b0 y
b0 #"
b0 %
b0 l
b0 N
b0 S
b0 H"
b111 $
b111 P
b111 O
b111 g
b111 h
0K
1G
1L
1a
0+
07
08
b0 /
b0 ."
b0 G"
1i
b0 -
b0 B"
b0 E"
0V
0f
b1 1
b1 R
b1 P"
b0 0
b0 Q
b0 S"
b0 p
b0 u
b1010 (
b1010 H
b1010 &"
b1010 2"
b1010 ="
b1010 R"
b11000001011100 5"
b11000001011100 ?"
b100 >
b100 d
b100 j
b100 Y"
b1 #
b1 1"
b1 ;"
b1 :
b1 +"
b1 N"
b1100 &
b1100 )"
b1100 6
b1100 W"
b0 )
b0 o
b0 9
b0 ,"
b0 Q"
b0 '
b0 *"
b0 5
b0 D"
b0 V"
b0 ;
b0 C"
b0 X"
b1010 F
b1010 e
b1010 k
b1010 ["
b1010 E
b1010 %"
b1010 Z"
b1100000000000000000001010 <"
b10001100000000000000000001010 D
b10001100000000000000000001010 6"
b10001100000000000000000001010 8"
b10001100000000000000000001010 T"
b11000001011100 <
b11000001011100 4"
b11000001011100 L"
b1011000 :"
b11000001011000 =
b11000001011000 t
b11000001011000 /"
b11000001011000 3"
b11000001011000 7"
b11000001011000 9"
b11000001011000 >"
1!
#14000
0!
#15000
b0 p
b11111111111111111111111100000000 n
b0 .
b0 -"
b0 M"
b11111111 r
b0 ,
b0 J"
b0 K"
0A"
b0 s
b0 z
b0 y
b0 #"
b0 %
b0 l
b0 N
b0 S
b0 H"
b1011 $
b1011 P
b1011 O
b1011 g
b1011 h
1+
17
18
0G
12
0L
1X
0a
0i
b1010 /
b1010 ."
b1010 G"
b101000010000000 (
b101000010000000 H
b101000010000000 &"
b101000010000000 2"
b101000010000000 ="
b101000010000000 R"
1f
b10 1
b10 R
b10 P"
b1010 -
b1010 B"
b1010 E"
b11000001100000 5"
b11000001100000 ?"
b0 >
b0 d
b0 j
b0 Y"
b0 #
b0 1"
b0 ;"
b0 :
b0 +"
b0 N"
b0 &
b0 )"
b0 6
b0 W"
b1000 '
b1000 *"
b1000 5
b1000 D"
b1000 V"
b1010 ;
b1010 C"
b1010 X"
b10 3
b10 ("
b10 O"
b10 4
b10 '"
b10 U"
b0 F
b0 e
b0 k
b0 ["
b101000010000000 E
b101000010000000 %"
b101000010000000 Z"
b10000101000010000000 <"
b10000101000010000000 D
b10000101000010000000 6"
b10000101000010000000 8"
b10000101000010000000 T"
b11000001100000 <
b11000001100000 4"
b11000001100000 L"
b1011100 :"
b11000001011100 =
b11000001011100 t
b11000001011100 /"
b11000001011100 3"
b11000001011100 7"
b11000001011100 9"
b11000001011100 >"
1!
#16000
0!
#17000
b11111111111111110000000000000000 .
b11111111111111110000000000000000 -"
b11111111111111110000000000000000 M"
b11111111111111110000000000000000 ,
b11111111111111110000000000000000 J"
b11111111111111110000000000000000 K"
b11111111111111110000000000000000 %
b11111111111111110000000000000000 l
b11111111111111110000000000000000 N
b11111111111111110000000000000000 S
b11111111111111110000000000000000 H"
b101 $
b101 P
b101 O
b101 g
b101 h
b1111111111111111 0
b1111111111111111 Q
b1111111111111111 S"
1M
1\
1+
17
08
b1 /
b1 ."
b1 G"
02
1i
b1 -
b1 B"
b1 E"
b0 1
b0 R
b0 P"
0X
0f
b1111111111111111 (
b1111111111111111 H
b1111111111111111 &"
b1111111111111111 2"
b1111111111111111 ="
b1111111111111111 R"
b11000001100100 5"
b11000001100100 ?"
b1111 >
b1111 d
b1111 j
b1111 Y"
b1 '
b1 *"
b1 5
b1 D"
b1 V"
b11111 ;
b11111 C"
b11111 X"
b11111 3
b11111 ("
b11111 O"
b11111 4
b11111 '"
b11111 U"
b111111 F
b111111 e
b111111 k
b111111 ["
b1111111111111111 E
b1111111111111111 %"
b1111111111111111 Z"
b11111111111111111 <"
b111100000000011111111111111111 D
b111100000000011111111111111111 6"
b111100000000011111111111111111 8"
b111100000000011111111111111111 T"
b11000001100100 <
b11000001100100 4"
b11000001100100 L"
b1100000 :"
b11000001100000 =
b11000001100000 t
b11000001100000 /"
b11000001100000 3"
b11000001100000 7"
b11000001100000 9"
b11000001100000 >"
1!
#18000
0!
#19000
b111111111111111111111111 n
b11111111111111111111111111111111 .
b11111111111111111111111111111111 -"
b11111111111111111111111111111111 M"
b11111111000000000000000000000000 r
b11111111111111111111111111111111 ,
b11111111111111111111111111111111 J"
b11111111111111111111111111111111 K"
1A"
b11 s
b11 z
b11 y
b11 #"
b11111111111111111111111111111111 %
b11111111111111111111111111111111 l
b11111111111111111111111111111111 N
b11111111111111111111111111111111 S
b11111111111111111111111111111111 H"
b1 $
b1 P
b1 O
b1 g
b1 h
0\
1Z
b1011 /
b1011 ."
b1011 G"
b11111111111111110000000000000000 1
b11111111111111110000000000000000 R
b11111111111111110000000000000000 P"
b1011 -
b1011 B"
b1011 E"
b11000001101000 5"
b11000001101000 ?"
b1101 >
b1101 d
b1101 j
b1101 Y"
b11111111111111110000000000000000 #
b11111111111111110000000000000000 1"
b11111111111111110000000000000000 ;"
b11111111111111110000000000000000 :
b11111111111111110000000000000000 +"
b11111111111111110000000000000000 N"
b1 &
b1 )"
b1 6
b1 W"
b1011 '
b1011 *"
b1011 5
b1011 D"
b1011 V"
b1010111111111111111111 <"
b0 p
b0 u
b110100001010111111111111111111 D
b110100001010111111111111111111 6"
b110100001010111111111111111111 8"
b110100001010111111111111111111 T"
b0 )
b0 o
b0 9
b0 ,"
b0 Q"
b11000001101000 <
b11000001101000 4"
b11000001101000 L"
b1100100 :"
b11000001100100 =
b11000001100100 t
b11000001100100 /"
b11000001100100 3"
b11000001100100 7"
b11000001100100 9"
b11000001100100 >"
1!
#20000
0!
#21000
b11111111111111111111111100000000 n
b11111111 r
b10 $
b10 P
b10 O
b10 g
b10 h
0A"
b0 s
b0 z
b0 y
b0 #"
b0 .
b0 -"
b0 M"
b0 ,
b0 J"
b0 K"
1G
0+
07
b0 %
b0 l
b0 N
b0 S
b0 H"
1*
1@
b0 0
b0 Q
b0 S"
1T
0Z
b0 1
b0 R
b0 P"
b0 (
b0 H
b0 &"
b0 2"
b0 ="
b0 R"
b11000001101100 5"
b11000001101100 ?"
b101011 >
b101011 d
b101011 j
b101011 Y"
b0 #
b0 1"
b0 ;"
b0 :
b0 +"
b0 N"
b1010 &
b1010 )"
b1010 6
b1010 W"
b0 ;
b0 C"
b0 X"
b0 3
b0 ("
b0 O"
b0 4
b0 '"
b0 U"
b0 F
b0 e
b0 k
b0 ["
b0 E
b0 %"
b0 Z"
b1010010110000000000000000 <"
b10101101010010110000000000000000 D
b10101101010010110000000000000000 6"
b10101101010010110000000000000000 8"
b10101101010010110000000000000000 T"
b11111111111111111111111111111111 p
b11111111111111111111111111111111 u
b11000001101100 <
b11000001101100 4"
b11000001101100 L"
b1101000 :"
b11000001101000 =
b11000001101000 t
b11000001101000 /"
b11000001101000 3"
b11000001101000 7"
b11000001101000 9"
b11000001101000 >"
b11111111111111111111111111111111 )
b11111111111111111111111111111111 o
b11111111111111111111111111111111 9
b11111111111111111111111111111111 ,"
b11111111111111111111111111111111 Q"
1!
#22000
0!
#23000
b11111111111111110000000011111111 n
b1111111100000000 r
1A"
b1 s
b1 z
b1 y
b1 #"
b1 .
b1 -"
b1 M"
b1 ,
b1 J"
b1 K"
b1 %
b1 l
b1 N
b1 S
b1 H"
1+
17
18
0G
0M
b1 0
b1 Q
b1 S"
0*
0@
1c
0T
0i
b1000 /
b1000 ."
b1000 G"
b100000000100000 (
b100000000100000 H
b100000000100000 &"
b100000000100000 2"
b100000000100000 ="
b100000000100000 R"
1f
b1000 -
b1000 B"
b1000 E"
b1 u
b11000001110000 5"
b11000001110000 ?"
b11111111111111110000000111111111 p
b11111111 v
b11111111 |
b11111111 q
b11111111 {
b11111111 $"
b0 >
b0 d
b0 j
b0 Y"
b1000 &
b1000 )"
b1000 6
b1000 W"
b1 )
b1 o
b1 9
b1 ,"
b1 Q"
b10001 '
b10001 *"
b10001 5
b10001 D"
b10001 V"
b1000 ;
b1000 C"
b1000 X"
b100000 F
b100000 e
b100000 k
b100000 ["
b100000000100000 E
b100000000100000 %"
b100000000100000 Z"
b1000100010100000000100000 <"
b11111111 }
b11111111 ~
b11111111 !"
b11111111 ""
b11111111111111111111111111111111 I
b11111111111111111111111111111111 w
b11111111111111111111111111111111 I"
b1000100010100000000100000 D
b1000100010100000000100000 6"
b1000100010100000000100000 8"
b1000100010100000000100000 T"
b11111111111111111111111111111111 m
b11000001110000 <
b11000001110000 4"
b11000001110000 L"
b1101100 :"
b11000001101100 =
b11000001101100 t
b11000001101100 /"
b11000001101100 3"
b11000001101100 7"
b11000001101100 9"
b11000001101100 >"
1!
#24000
0!
#25000
b0 }
b0 ~
b0 !"
b0 ""
b0 I
b0 w
b0 I"
b0 m
b0 v
b0 |
b0 q
b0 {
b0 $"
b1 p
b11111111111111111111111100000000 n
b1011 $
b1011 P
b1011 O
b1011 g
b1011 h
b100 .
b100 -"
b100 M"
b11111111 r
b1010 /
b1010 ."
b1010 G"
b100 ,
b100 J"
b100 K"
0A"
b0 s
b0 z
b0 y
b0 #"
b1010 -
b1010 B"
b1010 E"
1W
0c
b100 %
b100 l
b100 N
b100 S
b100 H"
b101000000000100 (
b101000000000100 H
b101000000000100 &"
b101000000000100 2"
b101000000000100 ="
b101000000000100 R"
b11000001110100 5"
b11000001110100 ?"
b10010 &
b10010 )"
b10010 6
b10010 W"
b1000 '
b1000 *"
b1000 5
b1000 D"
b1000 V"
b1010 ;
b1010 C"
b1010 X"
b100 F
b100 e
b100 k
b100 ["
b101000000000100 E
b101000000000100 %"
b101000000000100 Z"
b10010010000101000000000100 <"
b10010010000101000000000100 D
b10010010000101000000000100 6"
b10010010000101000000000100 8"
b10010010000101000000000100 T"
b10 1
b10 R
b10 P"
b11000001110100 <
b11000001110100 4"
b11000001110100 L"
b1110000 :"
b11000001110000 =
b11000001110000 t
b11000001110000 /"
b11000001110000 3"
b11000001110000 7"
b11000001110000 9"
b11000001110000 >"
b10 #
b10 1"
b10 ;"
b10 :
b10 +"
b10 N"
1!
#26000
0!
