Pre/Pre_Verilog/cpu_checker_challenge/cpu_checker.vcd
$date
	Fri Sep 09 10:15:39 2022
$end
$version
	Icarus Verilog
$end
$timescale
	1ps
$end
$scope module tb_cpu_checker $end
$var wire 2 ! format_type [1:0] $end
$var wire 4 " error_code [3:0] $end
$var reg 8 # char [7:0] $end
$var reg 1 $ clk $end
$var reg 1 % finish $end
$var reg 16 & freq [15:0] $end
$var reg 1 ' reset $end
$scope module u_cpu_checker $end
$var wire 8 ( char [7:0] $end
$var wire 1 $ clk $end
$var wire 16 ) freq [15:0] $end
$var wire 1 ' reset $end
$var reg 1 * a $end
$var reg 32 + addr [31:0] $end
$var reg 4 , error_code [3:0] $end
$var reg 1 - flag $end
$var reg 2 . format_type [1:0] $end
$var reg 1 / g $end
$var reg 16 0 grf [15:0] $end
$var reg 1 1 p $end
$var reg 32 2 pc [31:0] $end
$var reg 6 3 state [5:0] $end
$var reg 1 4 t $end
$var reg 16 5 tim [15:0] $end
$upscope $end
$upscope $end
$enddefinitions $end
#0
$dumpvars
bx 5
x4
bx 3
bx 2
x1
bx 0
x/
bx .
x-
bx ,
bx +
x*
bz )
b0 (
1'
b1000 &
0%
0$
b0 #
bx "
bx !
$end
#1000
0/
0*
01
04
b0 0
b0 +
b0 2
b0 5
b0 "
b0 ,
b0 !
b0 .
b0 3
0-
1$
#2000
0$
#3000
1$
#4000
0$
#5000
1$
#6000
0$
#7000
1$
#8000
0$
#9000
1$
#10000
0$
0'
#11000
1$
#12000
0$
b1011110 #
b1011110 (
#13000
b1 3
1$
#14000
0$
b110010 #
b110010 (
#15000
b10 5
b10 3
1$
#16000
0$
b110100 #
b110100 (
#17000
b11000 5
b11 3
1$
#18000
0$
b110010 #
b110010 (
#19000
b11110010 5
b100 3
1$
#20000
0$
b1000000 #
b1000000 (
#21000
b110 3
1$
#22000
0$
b110000 #
b110000 (
#23000
b111 3
1$
#24000
0$
#25000
b1000 3
1$
#26000
0$
#27000
b1001 3
1$
#28000
0$
#29000
b1010 3
1$
#30000
0$
b110011 #
b110011 (
#31000
b11 2
b1011 3
1$
#32000
0$
b110000 #
b110000 (
#33000
b110000 2
b1100 3
1$
#34000
0$
b1100110 #
b1100110 (
#35000
b1100001111 2
b1101 3
1$
#36000
0$
b110100 #
b110100 (
#37000
b11000011110100 2
b1110 3
1$
#38000
0$
b111010 #
b111010 (
#39000
b1111 3
1$
#40000
0$
b100000 #
b100000 (
#41000
1$
#42000
0$
b100100 #
b100100 (
#43000
b10000 3
1$
#44000
0$
b110011 #
b110011 (
#45000
b11 0
b10001 3
1$
#46000
0$
b110010 #
b110010 (
#47000
b100000 0
b10010 3
1$
#48000
0$
b100000 #
b100000 (
#49000
b10101 3
1$
#50000
0$
b111100 #
b111100 (
#51000
b10110 3
1$
#52000
0$
b111101 #
b111101 (
#53000
b10111 3
1$
#54000
0$
b110001 #
b110001 (
#55000
b11000 3
1$
#56000
0$
b110010 #
b110010 (
#57000
b11001 3
1$
#58000
0$
b110011 #
b110011 (
#59000
b11010 3
1$
#60000
0$
b110100 #
b110100 (
#61000
b11011 3
1$
#62000
0$
b110101 #
b110101 (
#63000
b11100 3
1$
#64000
0$
b110110 #
b110110 (
#65000
b11101 3
1$
#66000
0$
b110111 #
b110111 (
#67000
b11110 3
1$
#68000
0$
b111000 #
b111000 (
#69000
b11111 3
1/
14
1$
#70000
0$
b100011 #
b100011 (
#71000
b1001 "
b1001 ,
b1 !
b1 .
b0 3
1$
#72000
0$
b1011110 #
b1011110 (
#73000
b1 3
0/
04
b0 0
b0 2
b0 5
b0 "
b0 ,
b0 !
b0 .
1$
#74000
0$
b110010 #
b110010 (
#75000
b10 5
b10 3
1$
#76000
0$
b110100 #
b110100 (
#77000
b11000 5
b11 3
1$
#78000
0$
b110010 #
b110010 (
#79000
b11110010 5
b100 3
1$
#80000
0$
b1000000 #
b1000000 (
#81000
b110 3
1$
#82000
0$
b110000 #
b110000 (
#83000
b111 3
1$
#84000
0$
#85000
b1000 3
1$
#86000
0$
#87000
b1001 3
1$
#88000
0$
#89000
b1010 3
1$
#90000
0$
b110011 #
b110011 (
#91000
b11 2
b1011 3
1$
#92000
0$
b110000 #
b110000 (
#93000
b110000 2
b1100 3
1$
#94000
0$
b1100110 #
b1100110 (
#95000
b1100001111 2
b1101 3
1$
#96000
0$
b110100 #
b110100 (
#97000
b11000011110100 2
b1110 3
1$
#98000
0$
b111010 #
b111010 (
#99000
b1111 3
1$
#100000
0$
b100000 #
b100000 (
#101000
1$
#102000
0$
b100100 #
b100100 (
#103000
b10000 3
1$
#104000
0$
b110011 #
b110011 (
#105000
b11 0
b10001 3
1$
#106000
0$
b110001 #
b110001 (
#107000
b11111 0
b10010 3
1$
#108000
0$
b100000 #
b100000 (
#109000
b10101 3
1$
#110000
0$
b111100 #
b111100 (
#111000
b10110 3
1$
#112000
0$
b111101 #
b111101 (
#113000
b10111 3
1$
#114000
0$
b110001 #
b110001 (
#115000
b11000 3
1$
#116000
0$
b110010 #
b110010 (
#117000
b11001 3
1$
#118000
0$
b110011 #
b110011 (
#119000
b11010 3
1$
#120000
0$
b110010 #
b110010 (
#121000
b11011 3
1$
#122000
0$
b110001 #
b110001 (
#123000
b11100 3
1$
#124000
0$
b110101 #
b110101 (
#125000
b11101 3
1$
#126000
0$
b100011 #
b100011 (
#127000
b0 3
1$
#128000
0$
b1011110 #
b1011110 (
#129000
b1 3
b0 0
b0 2
b0 5
1$
#130000
0$
b110010 #
b110010 (
#131000
b10 5
b10 3
1$
#132000
0$
b110100 #
b110100 (
#133000
b11000 5
b11 3
1$
#134000
0$
b110010 #
b110010 (
#135000
b11110010 5
b100 3
1$
#136000
0$
b1000000 #
b1000000 (
#137000
b110 3
1$
#138000
0$
b110000 #
b110000 (
#139000
b111 3
1$
#140000
0$
#141000
b1000 3
1$
#142000
0$
#143000
b1001 3
1$
#144000
0$
#145000
b1010 3
1$
#146000
0$
b110011 #
b110011 (
#147000
b11 2
b1011 3
1$
#148000
0$
b110000 #
b110000 (
#149000
b110000 2
b1100 3
1$
#150000
0$
b1100110 #
b1100110 (
#151000
b1100001111 2
b1101 3
1$
#152000
0$
b110100 #
b110100 (
#153000
b11000011110100 2
b1110 3
1$
#154000
0$
b111010 #
b111010 (
#155000
b1111 3
1$
#156000
0$
b100000 #
b100000 (
#157000
1$
#158000
0$
b100100 #
b100100 (
#159000
b10000 3
1$
#160000
0$
b110011 #
b110011 (
#161000
b11 0
b10001 3
1$
#162000
0$
b110001 #
b110001 (
#163000
b11111 0
b10010 3
1$
#164000
0$
b100000 #
b100000 (
#165000
b10101 3
1$
#166000
0$
b111100 #
b111100 (
#167000
b10110 3
1$
#168000
0$
b111101 #
b111101 (
#169000
b10111 3
1$
#170000
0$
b110001 #
b110001 (
#171000
b11000 3
1$
#172000
0$
b110010 #
b110010 (
#173000
b11001 3
1$
#174000
0$
b110011 #
b110011 (
#175000
b11010 3
1$
#176000
0$
b110010 #
b110010 (
#177000
b11011 3
1$
#178000
0$
b110001 #
b110001 (
#179000
b11100 3
1$
#180000
0$
b110101 #
b110101 (
#181000
b11101 3
1$
#182000
0$
b111000 #
b111000 (
#183000
b11110 3
1$
#184000
0$
b111001 #
b111001 (
#185000
b11111 3
14
1$
#186000
0$
#187000
b0 3
1$
#188000
0$
b111000 #
b111000 (
#189000
04
b0 0
b0 2
b0 5
1$
#190000
0$
b100011 #
b100011 (
#191000
1$
#192000
0$
b1011110 #
b1011110 (
#193000
b1 3
1$
#194000
0$
b110010 #
b110010 (
#195000
b10 5
b10 3
1$
#196000
0$
b110100 #
b110100 (
#197000
b11000 5
b11 3
1$
#198000
0$
b110010 #
b110010 (
#199000
b11110010 5
b100 3
1$
#200000
0$
b1000000 #
b1000000 (
#201000
b110 3
1$
#202000
0$
b110000 #
b110000 (
#203000
b111 3
1$
#204000
0$
#205000
b1000 3
1$
#206000
0$
#207000
b1001 3
1$
#208000
0$
#209000
b1010 3
1$
#210000
0$
b110011 #
b110011 (
#211000
b11 2
b1011 3
1$
#212000
0$
b110000 #
b110000 (
#213000
b110000 2
b1100 3
1$
#214000
0$
b1100110 #
b1100110 (
#215000
b1100001111 2
b1101 3
1$
#216000
0$
b110100 #
b110100 (
#217000
b11000011110100 2
b1110 3
1$
#218000
0$
b111010 #
b111010 (
#219000
b1111 3
1$
#220000
0$
b100000 #
b100000 (
#221000
1$
#222000
0$
b100100 #
b100100 (
#223000
b10000 3
1$
#224000
0$
b110011 #
b110011 (
#225000
b11 0
b10001 3
1$
#226000
0$
b110001 #
b110001 (
#227000
b11111 0
b10010 3
1$
#228000
0$
b100000 #
b100000 (
#229000
b10101 3
1$
#230000
0$
b111100 #
b111100 (
#231000
b10110 3
1$
#232000
0$
b111101 #
b111101 (
#233000
b10111 3
1$
#234000
0$
b100011 #
b100011 (
#235000
b0 3
1$
#236000
0$
b1011110 #
b1011110 (
#237000
b1 3
b0 0
b0 2
b0 5
1$
#238000
0$
b110010 #
b110010 (
#239000
b10 5
b10 3
1$
#240000
0$
b110100 #
b110100 (
#241000
b11000 5
b11 3
1$
#242000
0$
b110010 #
b110010 (
#243000
b11110010 5
b100 3
1$
#244000
0$
b1000000 #
b1000000 (
#245000
b110 3
1$
#246000
0$
b110000 #
b110000 (
#247000
b111 3
1$
#248000
0$
#249000
b1000 3
1$
#250000
0$
#251000
b1001 3
1$
#252000
0$
#253000
b1010 3
1$
#254000
0$
b110011 #
b110011 (
#255000
b11 2
b1011 3
1$
#256000
0$
b110000 #
b110000 (
#257000
b110000 2
b1100 3
1$
#258000
0$
b1100110 #
b1100110 (
#259000
b1100001111 2
b1101 3
1$
#260000
0$
b110100 #
b110100 (
#261000
b11000011110100 2
b1110 3
1$
#262000
0$
b111010 #
b111010 (
#263000
b1111 3
1$
#264000
0$
b100000 #
b100000 (
#265000
1$
#266000
0$
b100100 #
b100100 (
#267000
b10000 3
1$
#268000
0$
b110011 #
b110011 (
#269000
b11 0
b10001 3
1$
#270000
0$
b110001 #
b110001 (
#271000
b11111 0
b10010 3
1$
#272000
0$
b100000 #
b100000 (
#273000
b10101 3
1$
#274000
0$
b111100 #
b111100 (
#275000
b10110 3
1$
#276000
0$
b111101 #
b111101 (
#277000
b10111 3
1$
#278000
0$
b100000 #
b100000 (
#279000
1$
#280000
0$
#281000
1$
#282000
0$
#283000
1$
#284000
0$
b110001 #
b110001 (
#285000
b11000 3
1$
#286000
0$
b110010 #
b110010 (
#287000
b11001 3
1$
#288000
0$
b110011 #
b110011 (
#289000
b11010 3
1$
#290000
0$
b110010 #
b110010 (
#291000
b11011 3
1$
#292000
0$
b110001 #
b110001 (
#293000
b11100 3
1$
#294000
0$
b110101 #
b110101 (
#295000
b11101 3
1$
#296000
0$
b100000 #
b100000 (
#297000
b0 3
1$
#298000
0$
b100011 #
b100011 (
#299000
b0 0
b0 2
b0 5
1$
#300000
0$
b1011110 #
b1011110 (
#301000
b1 3
1$
#302000
0$
b110010 #
b110010 (
#303000
b10 5
b10 3
1$
#304000
0$
b110100 #
b110100 (
#305000
b11000 5
b11 3
1$
#306000
0$
b110010 #
b110010 (
#307000
b11110010 5
b100 3
1$
#308000
0$
b1000000 #
b1000000 (
#309000
b110 3
1$
#310000
0$
b110000 #
b110000 (
#311000
b111 3
1$
#312000
0$
#313000
b1000 3
1$
#314000
0$
#315000
b1001 3
1$
#316000
0$
#317000
b1010 3
1$
#318000
0$
b110011 #
b110011 (
#319000
b11 2
b1011 3
1$
#320000
0$
b110000 #
b110000 (
#321000
b110000 2
b1100 3
1$
#322000
0$
b1100110 #
b1100110 (
#323000
b1100001111 2
b1101 3
1$
#324000
0$
b110100 #
b110100 (
#325000
b11000011110100 2
b1110 3
1$
#326000
0$
b111010 #
b111010 (
#327000
b1111 3
1$
#328000
0$
b100000 #
b100000 (
#329000
1$
#330000
0$
b100100 #
b100100 (
#331000
b10000 3
1$
#332000
0$
b110011 #
b110011 (
#333000
b11 0
b10001 3
1$
#334000
0$
b110001 #
b110001 (
#335000
b11111 0
b10010 3
1$
#336000
0$
b100000 #
b100000 (
#337000
b10101 3
1$
#338000
0$
b111100 #
b111100 (
#339000
b10110 3
1$
#340000
0$
b111101 #
b111101 (
#341000
b10111 3
1$
#342000
0$
b100000 #
b100000 (
#343000
1$
#344000
0$
#345000
1$
#346000
0$
#347000
1$
#348000
0$
b1100001 #
b1100001 (
#349000
b11000 3
1$
#350000
0$
b1100010 #
b1100010 (
#351000
b11001 3
1$
#352000
0$
b110001 #
b110001 (
#353000
b11010 3
1$
#354000
0$
b110010 #
b110010 (
#355000
b11011 3
1$
#356000
0$
b110011 #
b110011 (
#357000
b11100 3
1$
#358000
0$
b110010 #
b110010 (
#359000
b11101 3
1$
#360000
0$
b110001 #
b110001 (
#361000
b11110 3
1$
#362000
0$
b110101 #
b110101 (
#363000
b11111 3
14
1$
#364000
0$
b100000 #
b100000 (
#365000
b0 3
1$
#366000
0$
b100011 #
b100011 (
#367000
04
b0 0
b0 2
b0 5
1$
#368000
0$
b1011110 #
b1011110 (
#369000
b1 3
1$
#370000
0$
b110010 #
b110010 (
#371000
b10 5
b10 3
1$
#372000
0$
b110100 #
b110100 (
#373000
b11000 5
b11 3
1$
#374000
0$
b110010 #
b110010 (
#375000
b11110010 5
b100 3
1$
#376000
0$
b1000000 #
b1000000 (
#377000
b110 3
1$
#378000
0$
b110000 #
b110000 (
#379000
b111 3
1$
#380000
0$
#381000
b1000 3
1$
#382000
0$
#383000
b1001 3
1$
#384000
0$
#385000
b1010 3
1$
#386000
0$
b110011 #
b110011 (
#387000
b11 2
b1011 3
1$
#388000
0$
b110000 #
b110000 (
#389000
b110000 2
b1100 3
1$
#390000
0$
b1100110 #
b1100110 (
#391000
b1100001111 2
b1101 3
1$
#392000
0$
b110100 #
b110100 (
#393000
b11000011110100 2
b1110 3
1$
#394000
0$
b111010 #
b111010 (
#395000
b1111 3
1$
#396000
0$
b100000 #
b100000 (
#397000
1$
#398000
0$
b100100 #
b100100 (
#399000
b10000 3
1$
#400000
0$
b110011 #
b110011 (
#401000
b11 0
b10001 3
1$
#402000
0$
b110001 #
b110001 (
#403000
b11111 0
b10010 3
1$
#404000
0$
b100000 #
b100000 (
#405000
b10101 3
1$
#406000
0$
b111100 #
b111100 (
#407000
b10110 3
1$
#408000
0$
b111101 #
b111101 (
#409000
b10111 3
1$
#410000
0$
b100000 #
b100000 (
#411000
1$
#412000
0$
#413000
1$
#414000
0$
#415000
1$
#416000
0$
b1000001 #
b1000001 (
#417000
b0 3
1$
#418000
0$
b1100010 #
b1100010 (
#419000
b0 0
b0 2
b0 5
1$
#420000
0$
b110001 #
b110001 (
#421000
1$
#422000
0$
b110010 #
b110010 (
#423000
1$
#424000
0$
b110011 #
b110011 (
#425000
1$
#426000
0$
b110010 #
b110010 (
#427000
1$
#428000
0$
b110001 #
b110001 (
#429000
1$
#430000
0$
b110101 #
b110101 (
#431000
1$
#432000
0$
b100000 #
b100000 (
#433000
1$
#434000
0$
b100011 #
b100011 (
#435000
1$
#436000
0$
b1011110 #
b1011110 (
#437000
b1 3
1$
#438000
0$
b110011 #
b110011 (
#439000
b11 5
b10 3
1$
#440000
0$
#441000
b100001 5
b11 3
1$
#442000
0$
b111000 #
b111000 (
#443000
b101010010 5
b100 3
1$
#444000
0$
b1000000 #
b1000000 (
#445000
b110 3
1$
#446000
0$
b110000 #
b110000 (
#447000
b111 3
1$
#448000
0$
#449000
b1000 3
1$
#450000
0$
#451000
b1001 3
1$
#452000
0$
#453000
b1010 3
1$
#454000
0$
b110011 #
b110011 (
#455000
b11 2
b1011 3
1$
#456000
0$
b110001 #
b110001 (
#457000
b110001 2
b1100 3
1$
#458000
0$
b110011 #
b110011 (
#459000
b1100010011 2
b1101 3
1$
#460000
0$
b110000 #
b110000 (
#461000
b11000100110000 2
b1110 3
1$
#462000
0$
b111010 #
b111010 (
#463000
b1111 3
1$
#464000
0$
b100000 #
b100000 (
#465000
1$
#466000
0$
b101010 #
b101010 (
#467000
1-
b100001 3
1$
#468000
0$
b110000 #
b110000 (
#469000
b100010 3
1$
#470000
0$
#471000
b100011 3
1$
#472000
0$
#473000
b100100 3
1$
#474000
0$
#475000
b100101 3
1$
#476000
0$
#477000
b100110 3
1$
#478000
0$
#479000
b100111 3
1$
#480000
0$
b111000 #
b111000 (
#481000
b1000 +
b101000 3
1$
#482000
0$
#483000
b10001000 +
b101001 3
1$
#484000
0$
b100000 #
b100000 (
#485000
b10101 3
1$
#486000
0$
b111100 #
b111100 (
#487000
b10110 3
1$
#488000
0$
b111101 #
b111101 (
#489000
b10111 3
1$
#490000
0$
b100000 #
b100000 (
#491000
1$
#492000
0$
b1000110 #
b1000110 (
#493000
b0 3
1$
#494000
0$
b1100110 #
b1100110 (
#495000
b0 +
b0 2
b0 5
0-
1$
#496000
0$
#497000
1$
#498000
0$
#499000
1$
#500000
0$
b1100010 #
b1100010 (
#501000
1$
#502000
0$
b110101 #
b110101 (
#503000
1$
#504000
0$
b110010 #
b110010 (
#505000
1$
#506000
0$
b111000 #
b111000 (
#507000
1$
#508000
0$
b100011 #
b100011 (
#509000
1$
#510000
0$
b1011110 #
b1011110 (
#511000
b1 3
1$
#512000
0$
b110011 #
b110011 (
#513000
b11 5
b10 3
1$
#514000
0$
#515000
b100001 5
b11 3
1$
#516000
0$
b111000 #
b111000 (
#517000
b101010010 5
b100 3
1$
#518000
0$
b1000000 #
b1000000 (
#519000
b110 3
1$
#520000
0$
b110000 #
b110000 (
#521000
b111 3
1$
#522000
0$
#523000
b1000 3
1$
#524000
0$
#525000
b1001 3
1$
#526000
0$
#527000
b1010 3
1$
#528000
0$
b110011 #
b110011 (
#529000
b11 2
b1011 3
1$
#530000
0$
b110001 #
b110001 (
#531000
b110001 2
b1100 3
1$
#532000
0$
b110011 #
b110011 (
#533000
b1100010011 2
b1101 3
1$
#534000
0$
b110000 #
b110000 (
#535000
b11000100110000 2
b1110 3
1$
#536000
0$
b111010 #
b111010 (
#537000
b1111 3
1$
#538000
0$
b100000 #
b100000 (
#539000
1$
#540000
0$
b101010 #
b101010 (
#541000
1-
b100001 3
1$
#542000
0$
b110000 #
b110000 (
#543000
b100010 3
1$
#544000
0$
#545000
b100011 3
1$
#546000
0$
#547000
b100100 3
1$
#548000
0$
#549000
b100101 3
1$
#550000
0$
#551000
b100110 3
1$
#552000
0$
#553000
b100111 3
1$
#554000
0$
b111000 #
b111000 (
#555000
b1000 +
b101000 3
1$
#556000
0$
#557000
b10001000 +
b101001 3
1$
#558000
0$
b100000 #
b100000 (
#559000
b10101 3
1$
#560000
0$
b111100 #
b111100 (
#561000
b10110 3
1$
#562000
0$
b111101 #
b111101 (
#563000
b10111 3
1$
#564000
0$
b100000 #
b100000 (
#565000
1$
#566000
0$
b1100110 #
b1100110 (
#567000
b11000 3
1$
#568000
0$
#569000
b11001 3
1$
#570000
0$
#571000
b11010 3
1$
#572000
0$
#573000
b11011 3
1$
#574000
0$
b1100010 #
b1100010 (
#575000
b11100 3
1$
#576000
0$
b110101 #
b110101 (
#577000
b11101 3
1$
#578000
0$
b110010 #
b110010 (
#579000
b11110 3
1$
#580000
0$
b111000 #
b111000 (
#581000
b11111 3
14
1$
#582000
0$
b100011 #
b100011 (
#583000
b1 "
b1 ,
b10 !
b10 .
b0 3
1$
#584000
0$
b1011110 #
b1011110 (
#585000
b1 3
04
b0 +
b0 2
b0 5
b0 "
b0 ,
0-
b0 !
b0 .
1$
#586000
0$
b110011 #
b110011 (
#587000
b11 5
b10 3
1$
#588000
0$
#589000
b100001 5
b11 3
1$
#590000
0$
b111000 #
b111000 (
#591000
b101010010 5
b100 3
1$
#592000
0$
b1000000 #
b1000000 (
#593000
b110 3
1$
#594000
0$
b110000 #
b110000 (
#595000
b111 3
1$
#596000
0$
#597000
b1000 3
1$
#598000
0$
#599000
b1001 3
1$
#600000
0$
#601000
b1010 3
1$
#602000
0$
b110011 #
b110011 (
#603000
b11 2
b1011 3
1$
#604000
0$
b110001 #
b110001 (
#605000
b110001 2
b1100 3
1$
#606000
0$
b110011 #
b110011 (
#607000
b1100010011 2
b1101 3
1$
#608000
0$
b110000 #
b110000 (
#609000
b11000100110000 2
b1110 3
1$
#610000
0$
b111010 #
b111010 (
#611000
b1111 3
1$
#612000
0$
b100000 #
b100000 (
#613000
1$
#614000
0$
b101010 #
b101010 (
#615000
1-
b100001 3
1$
#616000
0$
b110000 #
b110000 (
#617000
b100010 3
1$
#618000
0$
#619000
b100011 3
1$
#620000
0$
#621000
b100100 3
1$
#622000
0$
#623000
b100101 3
1$
#624000
0$
#625000
b100110 3
1$
#626000
0$
#627000
b100111 3
1$
#628000
0$
b111000 #
b111000 (
#629000
b1000 +
b101000 3
1$
#630000
0$
#631000
b10001000 +
b101001 3
1$
#632000
0$
b100000 #
b100000 (
#633000
b10101 3
1$
#634000
0$
b111100 #
b111100 (
#635000
b10110 3
1$
#636000
0$
b111101 #
b111101 (
#637000
b10111 3
1$
#638000
0$
b100011 #
b100011 (
#639000
b0 3
1$
#640000
0$
b1011110 #
b1011110 (
#641000
b1 3
b0 +
b0 2
b0 5
0-
1$
#642000
0$
b110011 #
b110011 (
#643000
b11 5
b10 3
1$
#644000
0$
#645000
b100001 5
b11 3
1$
#646000
0$
b111000 #
b111000 (
#647000
b101010010 5
b100 3
1$
#648000
0$
b1000000 #
b1000000 (
#649000
b110 3
1$
#650000
0$
b110000 #
b110000 (
#651000
b111 3
1$
#652000
0$
#653000
b1000 3
1$
#654000
0$
#655000
b1001 3
1$
#656000
0$
#657000
b1010 3
1$
#658000
0$
b110011 #
b110011 (
#659000
b11 2
b1011 3
1$
#660000
0$
b110001 #
b110001 (
#661000
b110001 2
b1100 3
1$
#662000
0$
b110011 #
b110011 (
#663000
b1100010011 2
b1101 3
1$
#664000
0$
b110000 #
b110000 (
#665000
b11000100110000 2
b1110 3
1$
#666000
0$
b111010 #
b111010 (
#667000
b1111 3
1$
#668000
0$
b100000 #
b100000 (
#669000
1$
#670000
0$
b101010 #
b101010 (
#671000
1-
b100001 3
1$
#672000
0$
b110000 #
b110000 (
#673000
b100010 3
1$
#674000
0$
#675000
b100011 3
1$
#676000
0$
#677000
b100100 3
1$
#678000
0$
#679000
b100101 3
1$
#680000
0$
#681000
b100110 3
1$
#682000
0$
#683000
b100111 3
1$
#684000
0$
b111000 #
b111000 (
#685000
b1000 +
b101000 3
1$
#686000
0$
#687000
b10001000 +
b101001 3
1$
#688000
0$
b100000 #
b100000 (
#689000
b10101 3
1$
#690000
0$
b111100 #
b111100 (
#691000
b10110 3
1$
#692000
0$
b111101 #
b111101 (
#693000
b10111 3
1$
#694000
0$
b100000 #
b100000 (
#695000
1$
#696000
0$
b1100110 #
b1100110 (
#697000
b11000 3
1$
#698000
0$
#699000
b11001 3
1$
#700000
0$
#701000
b11010 3
1$
#702000
0$
#703000
b11011 3
1$
#704000
0$
b1100010 #
b1100010 (
#705000
b11100 3
1$
#706000
0$
b110101 #
b110101 (
#707000
b11101 3
1$
#708000
0$
b110010 #
b110010 (
#709000
b11110 3
1$
#710000
0$
b111000 #
b111000 (
#711000
b11111 3
14
1$
#712000
0$
b110001 #
b110001 (
#713000
b0 3
1$
#714000
0$
b110010 #
b110010 (
#715000
04
b0 +
b0 2
b0 5
0-
1$
#716000
0$
b100011 #
b100011 (
#717000
1$
#718000
0$
b1011110 #
b1011110 (
#719000
b1 3
1$
#720000
0$
b110011 #
b110011 (
#721000
b11 5
b10 3
1$
#722000
0$
#723000
b100001 5
b11 3
1$
#724000
0$
b111000 #
b111000 (
#725000
b101010010 5
b100 3
1$
#726000
0$
b1000000 #
b1000000 (
#727000
b110 3
1$
#728000
0$
b110000 #
b110000 (
#729000
b111 3
1$
#730000
0$
#731000
b1000 3
1$
#732000
0$
#733000
b1001 3
1$
#734000
0$
#735000
b1010 3
1$
#736000
0$
b110011 #
b110011 (
#737000
b11 2
b1011 3
1$
#738000
0$
b110001 #
b110001 (
#739000
b110001 2
b1100 3
1$
#740000
0$
b110011 #
b110011 (
#741000
b1100010011 2
b1101 3
1$
#742000
0$
b110000 #
b110000 (
#743000
b11000100110000 2
b1110 3
1$
#744000
0$
b111010 #
b111010 (
#745000
b1111 3
1$
#746000
0$
b100000 #
b100000 (
#747000
1$
#748000
0$
b101010 #
b101010 (
#749000
1-
b100001 3
1$
#750000
0$
b110000 #
b110000 (
#751000
b100010 3
1$
#752000
0$
#753000
b100011 3
1$
#754000
0$
#755000
b100100 3
1$
#756000
0$
#757000
b100101 3
1$
#758000
0$
#759000
b100110 3
1$
#760000
0$
#761000
b100111 3
1$
#762000
0$
b111000 #
b111000 (
#763000
b1000 +
b101000 3
1$
#764000
0$
#765000
b10001000 +
b101001 3
1$
#766000
0$
b100000 #
b100000 (
#767000
b10101 3
1$
#768000
0$
b111100 #
b111100 (
#769000
b10110 3
1$
#770000
0$
b111101 #
b111101 (
#771000
b10111 3
1$
#772000
0$
b100000 #
b100000 (
#773000
1$
#774000
0$
b1100110 #
b1100110 (
#775000
b11000 3
1$
#776000
0$
#777000
b11001 3
1$
#778000
0$
#779000
b11010 3
1$
#780000
0$
#781000
b11011 3
1$
#782000
0$
b1100010 #
b1100010 (
#783000
b11100 3
1$
#784000
0$
b110101 #
b110101 (
#785000
b11101 3
1$
#786000
0$
b110010 #
b110010 (
#787000
b11110 3
1$
#788000
0$
b100011 #
b100011 (
#789000
b0 3
1$
#790000
0$
b1011110 #
b1011110 (
#791000
b1 3
b0 +
b0 2
b0 5
0-
1$
#792000
0$
b110011 #
b110011 (
#793000
b11 5
b10 3
1$
#794000
0$
#795000
b100001 5
b11 3
1$
#796000
0$
b111000 #
b111000 (
#797000
b101010010 5
b100 3
1$
#798000
0$
b1000000 #
b1000000 (
#799000
b110 3
1$
#800000
0$
b110000 #
b110000 (
#801000
b111 3
1$
#802000
0$
#803000
b1000 3
1$
#804000
0$
#805000
b1001 3
1$
#806000
0$
#807000
b1010 3
1$
#808000
0$
b110011 #
b110011 (
#809000
b11 2
b1011 3
1$
#810000
0$
b110001 #
b110001 (
#811000
b110001 2
b1100 3
1$
#812000
0$
b110011 #
b110011 (
#813000
b1100010011 2
b1101 3
1$
#814000
0$
b110000 #
b110000 (
#815000
b11000100110000 2
b1110 3
1$
#816000
0$
b111010 #
b111010 (
#817000
b1111 3
1$
#818000
0$
b100000 #
b100000 (
#819000
1$
#820000
0$
b101010 #
b101010 (
#821000
1-
b100001 3
1$
#822000
0$
b110000 #
b110000 (
#823000
b100010 3
1$
#824000
0$
#825000
b100011 3
1$
#826000
0$
#827000
b100100 3
1$
#828000
0$
#829000
b100101 3
1$
#830000
0$
#831000
b100110 3
1$
#832000
0$
#833000
b100111 3
1$
#834000
0$
b111000 #
b111000 (
#835000
b1000 +
b101000 3
1$
#836000
0$
#837000
b10001000 +
b101001 3
1$
#838000
0$
b100000 #
b100000 (
#839000
b10101 3
1$
#840000
0$
b111100 #
b111100 (
#841000
b10110 3
1$
#842000
0$
b111101 #
b111101 (
#843000
b10111 3
1$
#844000
0$
b100000 #
b100000 (
#845000
1$
#846000
0$
b1100110 #
b1100110 (
#847000
b11000 3
1$
#848000
0$
#849000
b11001 3
1$
#850000
0$
#851000
b11010 3
1$
#852000
0$
#853000
b11011 3
1$
#854000
0$
b1000010 #
b1000010 (
#855000
b0 3
1$
#856000
0$
b110101 #
b110101 (
#857000
b0 +
b0 2
b0 5
0-
1$
#858000
0$
b110010 #
b110010 (
#859000
1$
#860000
0$
b111000 #
b111000 (
#861000
1$
#862000
0$
b100011 #
b100011 (
#863000
1$
#864000
0$
b1011110 #
b1011110 (
#865000
b1 3
1$
#866000
0$
b110011 #
b110011 (
#867000
b11 5
b10 3
1$
#868000
0$
#869000
b100001 5
b11 3
1$
#870000
0$
b111000 #
b111000 (
#871000
b101010010 5
b100 3
1$
#872000
0$
b1000000 #
b1000000 (
#873000
b110 3
1$
#874000
0$
b110000 #
b110000 (
#875000
b111 3
1$
#876000
0$
#877000
b1000 3
1$
#878000
0$
#879000
b1001 3
1$
#880000
0$
#881000
b1010 3
1$
#882000
0$
b110011 #
b110011 (
#883000
b11 2
b1011 3
1$
#884000
0$
b110001 #
b110001 (
#885000
b110001 2
b1100 3
1$
#886000
0$
b110011 #
b110011 (
#887000
b1100010011 2
b1101 3
1$
#888000
0$
b110000 #
b110000 (
#889000
b11000100110000 2
b1110 3
1$
#890000
0$
b111010 #
b111010 (
#891000
b1111 3
1$
#892000
0$
b100000 #
b100000 (
#893000
1$
#894000
0$
b101010 #
b101010 (
#895000
1-
b100001 3
1$
#896000
0$
b110000 #
b110000 (
#897000
b100010 3
1$
#898000
0$
#899000
b100011 3
1$
#900000
0$
#901000
b100100 3
1$
#902000
0$
#903000
b100101 3
1$
#904000
0$
#905000
b100110 3
1$
#906000
0$
#907000
b100111 3
1$
#908000
0$
b111000 #
b111000 (
#909000
b1000 +
b101000 3
1$
#910000
0$
#911000
b10001000 +
b101001 3
1$
#912000
0$
b100000 #
b100000 (
#913000
b10101 3
1$
#914000
0$
b111100 #
b111100 (
#915000
b10110 3
1$
#916000
0$
b111101 #
b111101 (
#917000
b10111 3
1$
#918000
0$
b100000 #
b100000 (
#919000
1$
#920000
0$
b1100110 #
b1100110 (
#921000
b11000 3
1$
#922000
0$
#923000
b11001 3
1$
#924000
0$
#925000
b11010 3
1$
#926000
0$
#927000
b11011 3
1$
#928000
0$
b1100010 #
b1100010 (
#929000
b11100 3
1$
#930000
0$
b110101 #
b110101 (
#931000
b11101 3
1$
#932000
0$
b110010 #
b110010 (
#933000
b11110 3
1$
#934000
0$
b1000010 #
b1000010 (
#935000
b0 3
1$
